test.vcd
$date
	Mon Jan 24 18:32:11 2022
$end
$version
	Icarus Verilog
$end
$timescale
	1s
$end
$scope module top $end
$var reg 1 ! clk $end
$scope module CPU $end
$var wire 1 ! clk $end
$var wire 1 " zero_s4 $end
$var wire 1 # zero_s3 $end
$var wire 5 $ wrreg_s5 [4:0] $end
$var wire 5 % wrreg_s4 [4:0] $end
$var wire 5 & wrreg [4:0] $end
$var wire 32 ' wrdata_s5 [31:0] $end
$var wire 5 ( shamt [4:0] $end
$var wire 32 ) seimm_sl2 [31:0] $end
$var wire 32 * seimm_s3 [31:0] $end
$var wire 32 + seimm [31:0] $end
$var wire 5 , rt [4:0] $end
$var wire 5 - rs2_s3 [4:0] $end
$var wire 5 . rs2 [4:0] $end
$var wire 5 / rs1_s3 [4:0] $end
$var wire 5 0 rs1 [4:0] $end
$var wire 5 1 rs [4:0] $end
$var wire 1 2 regwrite_s5 $end
$var wire 1 3 regwrite_s4 $end
$var wire 1 4 regwrite_s3 $end
$var wire 1 5 regwrite $end
$var wire 1 6 regdst_s3 $end
$var wire 1 7 regdst $end
$var wire 32 8 rdata_s5 [31:0] $end
$var wire 32 9 rdata [31:0] $end
$var wire 5 : rd_s3 [4:0] $end
$var wire 5 ; rd [4:0] $end
$var wire 32 < pc4_s3 [31:0] $end
$var wire 32 = pc4_s2 [31:0] $end
$var wire 32 > pc4 [31:0] $end
$var wire 7 ? opcoderv [6:0] $end
$var wire 6 @ opcode [5:0] $end
$var wire 1 A memwrite_s4 $end
$var wire 1 B memwrite_s3 $end
$var wire 1 C memwrite $end
$var wire 1 D memtoreg_s5 $end
$var wire 1 E memtoreg_s4 $end
$var wire 1 F memtoreg_s3 $end
$var wire 1 G memtoreg $end
$var wire 1 H memread_s4 $end
$var wire 1 I memread_s3 $end
$var wire 1 J memread $end
$var wire 1 K jump_s4 $end
$var wire 1 L jump_s3 $end
$var wire 1 M jump_s2 $end
$var wire 32 N jaddr_s4 [31:0] $end
$var wire 32 O jaddr_s3 [31:0] $end
$var wire 32 P jaddr_s2 [31:0] $end
$var wire 32 Q inst_s2 [31:0] $end
$var wire 32 R inst [31:0] $end
$var wire 16 S imm [15:0] $end
$var wire 6 T funct [5:0] $end
$var wire 4 U func_s3 [3:0] $end
$var wire 7 V func7 [6:0] $end
$var wire 3 W func3 [2:0] $end
$var wire 32 X data2_s4 [31:0] $end
$var wire 32 Y data2_s3 [31:0] $end
$var wire 32 Z data2 [31:0] $end
$var wire 32 [ data1_s3 [31:0] $end
$var wire 32 \ data1 [31:0] $end
$var wire 1 ] branch_ne_s4 $end
$var wire 1 ^ branch_ne_s3 $end
$var wire 1 _ branch_ne_s2 $end
$var wire 1 ` branch_lt_s4 $end
$var wire 1 a branch_lt_s3 $end
$var wire 1 b branch_lt_s2 $end
$var wire 1 c branch_eq_s4 $end
$var wire 1 d branch_eq_s3 $end
$var wire 1 e branch_eq_s2 $end
$var wire 32 f baddr_s4 [31:0] $end
$var wire 32 g baddr_s3 [31:0] $end
$var wire 32 h baddr_s2 [31:0] $end
$var wire 1 i alusrc_s3 $end
$var wire 32 j alusrc_data2 [31:0] $end
$var wire 1 k alusrc $end
$var wire 32 l alurslt_s5 [31:0] $end
$var wire 32 m alurslt_s4 [31:0] $end
$var wire 32 n alurslt [31:0] $end
$var wire 2 o aluop_s3 [1:0] $end
$var wire 2 p aluop [1:0] $end
$var wire 4 q aluctl [3:0] $end
$var wire 32 r ImmGen [31:0] $end
$var reg 6 s clock_counter [5:0] $end
$var reg 1 t flush_s1 $end
$var reg 1 u flush_s2 $end
$var reg 1 v flush_s3 $end
$var reg 2 w forward_a [1:0] $end
$var reg 2 x forward_b [1:0] $end
$var reg 32 y fw_data1_s3 [31:0] $end
$var reg 32 z fw_data2_s3 [31:0] $end
$var reg 32 { pc [31:0] $end
$var reg 1 | pcsrc $end
$var reg 1 } stall_s1_s2 $end
$scope module alu1 $end
$var wire 32 ~ a [31:0] $end
$var wire 32 !" b [31:0] $end
$var wire 1 # zero $end
$var wire 32 "" sub_ab [31:0] $end
$var wire 1 #" slt $end
$var wire 1 $" oflow_sub $end
$var wire 1 %" oflow_add $end
$var wire 1 &" oflow $end
$var wire 4 '" ctl [3:0] $end
$var wire 32 (" add_ab [31:0] $end
$var reg 32 )" out [31:0] $end
$upscope $end
$scope module alu_ctl1 $end
$var wire 2 *" aluop [1:0] $end
$var wire 4 +" funct [3:0] $end
$var reg 4 ," _funct [3:0] $end
$var reg 4 -" aluctl [3:0] $end
$upscope $end
$scope module baddr_s2_s3 $end
$var wire 1 u clear $end
$var wire 1 ! clk $end
$var wire 1 ." hold $end
$var wire 32 /" in [31:0] $end
$var reg 32 0" out [31:0] $end
$upscope $end
$scope module baddr_s3_s4 $end
$var wire 1 v clear $end
$var wire 1 ! clk $end
$var wire 1 1" hold $end
$var wire 32 2" in [31:0] $end
$var reg 32 3" out [31:0] $end
$upscope $end
$scope module branch_s2_s3 $end
$var wire 1 u clear $end
$var wire 1 ! clk $end
$var wire 1 4" hold $end
$var wire 3 5" in [2:0] $end
$var reg 3 6" out [2:0] $end
$upscope $end
$scope module branch_s3_s4 $end
$var wire 1 v clear $end
$var wire 1 ! clk $end
$var wire 1 7" hold $end
$var wire 3 8" in [2:0] $end
$var reg 3 9" out [2:0] $end
$upscope $end
$scope module ctl1 $end
$var wire 7 :" opcode [6:0] $end
$var wire 32 ;" inst [31:0] $end
$var wire 3 <" f3 [2:0] $end
$var reg 32 =" ImmGen [31:0] $end
$var reg 2 >" aluop [1:0] $end
$var reg 1 k alusrc $end
$var reg 1 e branch_eq $end
$var reg 1 b branch_lt $end
$var reg 1 _ branch_ne $end
$var reg 1 M jump $end
$var reg 1 J memread $end
$var reg 1 G memtoreg $end
$var reg 1 C memwrite $end
$var reg 1 7 regdst $end
$var reg 1 5 regwrite $end
$upscope $end
$scope module dm1 $end
$var wire 7 ?" addr [6:0] $end
$var wire 1 ! clk $end
$var wire 1 H rd $end
$var wire 1 A wr $end
$var wire 32 @" wdata [31:0] $end
$var wire 32 A" rdata [31:0] $end
$upscope $end
$scope module func7_3_s2 $end
$var wire 1 B" clear $end
$var wire 1 ! clk $end
$var wire 1 } hold $end
$var wire 4 C" in [3:0] $end
$var reg 4 D" out [3:0] $end
$upscope $end
$scope module im1 $end
$var wire 32 E" addr [31:0] $end
$var wire 1 ! clk $end
$var wire 32 F" data [31:0] $end
$upscope $end
$scope module reg_alurslt $end
$var wire 1 v clear $end
$var wire 1 ! clk $end
$var wire 1 G" hold $end
$var wire 32 H" in [31:0] $end
$var reg 32 I" out [31:0] $end
$upscope $end
$scope module reg_alurslt_s4 $end
$var wire 1 J" clear $end
$var wire 1 ! clk $end
$var wire 1 K" hold $end
$var wire 32 L" in [31:0] $end
$var reg 32 M" out [31:0] $end
$upscope $end
$scope module reg_data2_s3 $end
$var wire 1 v clear $end
$var wire 1 ! clk $end
$var wire 1 N" hold $end
$var wire 32 O" in [31:0] $end
$var reg 32 P" out [31:0] $end
$upscope $end
$scope module reg_jaddr_s3 $end
$var wire 1 u clear $end
$var wire 1 ! clk $end
$var wire 1 Q" hold $end
$var wire 32 R" in [31:0] $end
$var reg 32 S" out [31:0] $end
$upscope $end
$scope module reg_jaddr_s4 $end
$var wire 1 v clear $end
$var wire 1 ! clk $end
$var wire 1 T" hold $end
$var wire 32 U" in [31:0] $end
$var reg 32 V" out [31:0] $end
$upscope $end
$scope module reg_jump_s3 $end
$var wire 1 u clear $end
$var wire 1 ! clk $end
$var wire 1 W" hold $end
$var wire 1 M in $end
$var reg 1 L out $end
$upscope $end
$scope module reg_jump_s4 $end
$var wire 1 v clear $end
$var wire 1 ! clk $end
$var wire 1 X" hold $end
$var wire 1 L in $end
$var reg 1 K out $end
$upscope $end
$scope module reg_pc4_s2 $end
$var wire 1 Y" clear $end
$var wire 1 ! clk $end
$var wire 1 } hold $end
$var wire 32 Z" in [31:0] $end
$var reg 32 [" out [31:0] $end
$upscope $end
$scope module reg_rdata_s4 $end
$var wire 1 \" clear $end
$var wire 1 ! clk $end
$var wire 1 ]" hold $end
$var wire 32 ^" in [31:0] $end
$var reg 32 _" out [31:0] $end
$upscope $end
$scope module reg_regwrite_s4 $end
$var wire 1 `" clear $end
$var wire 1 ! clk $end
$var wire 1 a" hold $end
$var wire 2 b" in [1:0] $end
$var reg 2 c" out [1:0] $end
$upscope $end
$scope module reg_s2_control $end
$var wire 1 } clear $end
$var wire 1 ! clk $end
$var wire 1 d" hold $end
$var wire 8 e" in [7:0] $end
$var reg 8 f" out [7:0] $end
$upscope $end
$scope module reg_s2_mem $end
$var wire 1 u clear $end
$var wire 1 ! clk $end
$var wire 1 } hold $end
$var wire 64 g" in [63:0] $end
$var reg 64 h" out [63:0] $end
$upscope $end
$scope module reg_s2_rt_rd $end
$var wire 1 u clear $end
$var wire 1 ! clk $end
$var wire 1 } hold $end
$var wire 10 i" in [9:0] $end
$var reg 10 j" out [9:0] $end
$upscope $end
$scope module reg_s2_seimm $end
$var wire 1 u clear $end
$var wire 1 ! clk $end
$var wire 1 } hold $end
$var wire 32 k" in [31:0] $end
$var reg 32 l" out [31:0] $end
$upscope $end
$scope module reg_s3 $end
$var wire 1 u clear $end
$var wire 1 ! clk $end
$var wire 1 m" hold $end
$var wire 4 n" in [3:0] $end
$var reg 4 o" out [3:0] $end
$upscope $end
$scope module reg_wrreg $end
$var wire 1 v clear $end
$var wire 1 ! clk $end
$var wire 1 p" hold $end
$var wire 5 q" in [4:0] $end
$var reg 5 r" out [4:0] $end
$upscope $end
$scope module reg_wrreg_s4 $end
$var wire 1 s" clear $end
$var wire 1 ! clk $end
$var wire 1 t" hold $end
$var wire 5 u" in [4:0] $end
$var reg 5 v" out [4:0] $end
$upscope $end
$scope module reg_zero_s3_s4 $end
$var wire 1 w" clear $end
$var wire 1 ! clk $end
$var wire 1 x" hold $end
$var wire 1 # in $end
$var reg 1 " out $end
$upscope $end
$scope module regm1 $end
$var wire 1 ! clk $end
$var wire 32 y" data1 [31:0] $end
$var wire 32 z" data2 [31:0] $end
$var wire 5 {" read1 [4:0] $end
$var wire 5 |" read2 [4:0] $end
$var wire 1 2 regwrite $end
$var wire 32 }" wrdata [31:0] $end
$var wire 5 ~" wrreg [4:0] $end
$var reg 32 !# _data1 [31:0] $end
$var reg 32 "# _data2 [31:0] $end
$upscope $end
$scope module regr_im_s2 $end
$var wire 1 t clear $end
$var wire 1 ! clk $end
$var wire 1 } hold $end
$var wire 32 ## in [31:0] $end
$var reg 32 $# out [31:0] $end
$upscope $end
$scope module regr_pc4_s2 $end
$var wire 1 t clear $end
$var wire 1 ! clk $end
$var wire 1 } hold $end
$var wire 32 %# in [31:0] $end
$var reg 32 &# out [31:0] $end
$upscope $end
$scope module regr_s2_rs $end
$var wire 1 '# clear $end
$var wire 1 ! clk $end
$var wire 1 } hold $end
$var wire 5 (# in [4:0] $end
$var reg 5 )# out [4:0] $end
$upscope $end
$upscope $end
$upscope $end
$enddefinitions $end
#0
$dumpvars
bx )#
bx (#
0'#
bx &#
b0 %#
bx $#
b1000000000010100010011 ##
bx "#
bx !#
bx ~"
bx }"
bx |"
bx {"
bx z"
bx y"
0x"
0w"
bx v"
bx u"
0t"
0s"
bx r"
bx q"
0p"
bx o"
bx n"
0m"
bx l"
bx k"
bx j"
bx i"
bx h"
bx g"
bx f"
bx e"
0d"
bx c"
bx b"
0a"
0`"
bx _"
bx ^"
0]"
0\"
bx ["
bx Z"
0Y"
0X"
0W"
bx V"
bx U"
0T"
bx S"
b0xxxxxxxxxxxxxxxxxxxxxxxxxx00 R"
0Q"
bx P"
bx O"
0N"
bx M"
bx L"
0K"
0J"
bx I"
bx H"
0G"
b1000000000010100010011 F"
b0 E"
bx D"
bx C"
0B"
bx A"
bx @"
bx ?"
bx >"
bx ="
bx <"
bx ;"
bx :"
bx 9"
bx 8"
07"
bx 6"
bx 5"
04"
bx 3"
bx 2"
01"
bx 0"
bx /"
0."
bx -"
bx ,"
bx +"
bx *"
bx )"
bx ("
bx '"
x&"
x%"
x$"
x#"
bx ""
bx !"
bx ~
x}
x|
b0 {
bx z
bx y
bx x
bx w
xv
xu
xt
b1 s
bx r
bx q
bx p
bx o
bx n
bx m
bx l
xk
bx j
xi
bx h
bx g
bx f
xe
xd
xc
xb
xa
x`
x_
x^
x]
bx \
bx [
bx Z
bx Y
bx X
bx W
bx V
bx U
bx T
bx S
b1000000000010100010011 R
bx Q
b0xxxxxxxxxxxxxxxxxxxxxxxxxx00 P
bx O
bx N
xM
xL
xK
xJ
xI
xH
xG
xF
xE
xD
xC
xB
xA
bx @
bx ?
b100 >
bx =
bx <
bx ;
bx :
bx 9
bx 8
x7
x6
x5
x4
x3
x2
bx 1
bx 0
bx /
bx .
bx -
bx ,
bx +
bx *
bx00 )
bx (
bx '
bx &
bx %
bx $
x#
x"
0!
$end
#1
0}
b10 h
b10 /"
b10 r
b10 ="
b10 k"
0M
15
17
0C
0G
0J
0b
0_
b0 5"
0e
1k
b10001011 e"
b10 p
b10 >"
b1010001001100 )
b0xxxxxxxxxxxxxxxxxxxxxxxxxxxxxxxx g"
b0 \
b0 y"
b0 !#
b0 <"
b10100010011 +
b100000000001010001001100 P
b100000000001010001001100 R"
b10100 (
b10100010011 S
b0 C"
b0 W
b0 V
b1010 ;
b0 0
b0 {"
b0 (#
b0 ,
b1001010 i"
b10 .
b10 |"
b1 1
b10011 ?
b10011 :"
b0 @
bx R
bx F"
bx ##
b0 =
b0 Z"
b0 &#
b1000000000010100010011 Q
b1000000000010100010011 ;"
b1000000000010100010011 $#
b0xxxxxxxxxxxxxxxxxxxxxxxxxx00 O
b0xxxxxxxxxxxxxxxxxxxxxxxxxx00 S"
b0xxxxxxxxxxxxxxxxxxxxxxxxxx00 U"
b10 s
b1000 >
b100 {
b100 E"
b100 %#
1!
#2
0!
#3
b10 H"
b10 n
b10 )"
b0 x
b0 w
bx r
bx ="
bx k"
b10001010 e"
0k
1#
0&"
1#"
0%"
1$"
b11111111111111111111111111111110 ""
b10 ("
b10 j
b10 !"
b0 y
b0 ~
b10 q
b10 '"
b10 -"
b1010 &
b1010 q"
bx00 )
bx g"
bx \
bx y"
bx !#
0a
0^
b0 8"
0d
1i
14
b10 o
b10 *"
0F
0B
b1000 n"
0I
16
b0 [
b10 ,"
b1010 :
b10 -
b10 T
bx <"
bx +
b0xxxxxxxxxxxxxxxxxxxxxxxxxx00 P
b0xxxxxxxxxxxxxxxxxxxxxxxxxx00 R"
bx (
bx S
bx C"
bx W
bx V
bx ;
bx 0
bx {"
bx (#
bx ,
bx i"
bx .
bx |"
bx 1
bx ?
bx :"
bx @
b1100 >
b1000 {
b1000 E"
b1000 %#
b11 s
b0xxxxxxxxxxxxxxxxxxxxxxxxxx00 N
b0xxxxxxxxxxxxxxxxxxxxxxxxxx00 V"
b100000000001010001001100 O
b100000000001010001001100 S"
b100000000001010001001100 U"
0L
b10 g
b10 0"
b10 2"
b0 6"
b10001011 f"
b0 <
b0 ["
b0xxxxxxxxxxxxxxxxxxxxxxxxxxxxxxxx h"
b0 U
b0 +"
b0 D"
b1001010 j"
b10 *
b10 l"
b0 /
b0 )#
bx Q
bx ;"
bx $#
bx h
bx /"
b100 =
b100 Z"
b100 &#
1!
#4
0!
#5
bx H"
bx n
bx )"
0|
0v
0u
0t
x%"
x$"
x#
x#"
x&"
bx &
bx q"
b0 q
b0 '"
b0 -"
b0 ?"
bx y
bx ~
bx T
bx ""
bx ("
bx j
bx !"
bx :
bx -
b0 ,"
bx [
0i
0A
0H
0E
b10 b"
13
b10 m
b10 L"
0`
0]
0c
b1000 =
b1000 Z"
b1000 &#
bx /
bx )#
bx *
bx l"
bx j"
bx U
bx +"
bx D"
bx h"
b100 <
b100 ["
b10001010 f"
bx g
bx 0"
bx 2"
b0xxxxxxxxxxxxxxxxxxxxxxxxxx00 O
b0xxxxxxxxxxxxxxxxxxxxxxxxxx00 S"
b0xxxxxxxxxxxxxxxxxxxxxxxxxx00 U"
b1000 o"
1"
b10 I"
b1010 %
b1010 r"
b1010 u"
b0 9"
b10 f
b10 3"
0K
b100000000001010001001100 N
b100000000001010001001100 V"
b100 s
b10000 >
b1100 {
b1100 E"
b1100 %#
1!
#6
0!
#7
b10 '
b10 }"
bx ?"
0D
12
bx m
bx L"
b10100 >
b10000 {
b10000 E"
b10000 %#
b101 s
b1010 $
b1010 v"
b1010 ~"
b10 l
b10 M"
b10 c"
b0xxxxxxxxxxxxxxxxxxxxxxxxxx00 N
b0xxxxxxxxxxxxxxxxxxxxxxxxxx00 V"
bx f
bx 3"
bx %
bx r"
bx u"
bx I"
x"
b1000 <
b1000 ["
b1100 =
b1100 Z"
b1100 &#
1!
#8
0!
#9
bx '
bx }"
b10000 =
b10000 Z"
b10000 &#
b1100 <
b1100 ["
bx l
bx M"
bx $
bx v"
bx ~"
b110 s
b11000 >
b10100 {
b10100 E"
b10100 %#
1!
#10
0!
#11
b11100 >
b11000 {
b11000 E"
b11000 %#
b111 s
b10000 <
b10000 ["
b10100 =
b10100 Z"
b10100 &#
1!
#12
0!
#13
b11000 =
b11000 Z"
b11000 &#
b10100 <
b10100 ["
b1000 s
b100000 >
b11100 {
b11100 E"
b11100 %#
1!
#14
0!
#15
b100100 >
b100000 {
b100000 E"
b100000 %#
b1001 s
b11000 <
b11000 ["
b11100 =
b11100 Z"
b11100 &#
1!
#16
0!
#17
b100000 =
b100000 Z"
b100000 &#
b11100 <
b11100 ["
b1010 s
b101000 >
b100100 {
b100100 E"
b100100 %#
1!
#18
0!
#19
b101100 >
b101000 {
b101000 E"
b101000 %#
b1011 s
b100000 <
b100000 ["
b100100 =
b100100 Z"
b100100 &#
1!
#20
0!
#21
b101000 =
b101000 Z"
b101000 &#
b100100 <
b100100 ["
b1100 s
b110000 >
b101100 {
b101100 E"
b101100 %#
1!
#22
0!
#23
b110100 >
b110000 {
b110000 E"
b110000 %#
b1101 s
b101000 <
b101000 ["
b101100 =
b101100 Z"
b101100 &#
1!
#24
0!
#25
b110000 =
b110000 Z"
b110000 &#
b101100 <
b101100 ["
b1110 s
b111000 >
b110100 {
b110100 E"
b110100 %#
1!
#26
0!
#27
b111100 >
b111000 {
b111000 E"
b111000 %#
b1111 s
b110000 <
b110000 ["
b110100 =
b110100 Z"
b110100 &#
1!
#28
0!
#29
b111000 =
b111000 Z"
b111000 &#
b110100 <
b110100 ["
b10000 s
b1000000 >
b111100 {
b111100 E"
b111100 %#
1!
#30
0!
#31
b1000100 >
b1000000 {
b1000000 E"
b1000000 %#
b10001 s
b111000 <
b111000 ["
b111100 =
b111100 Z"
b111100 &#
1!
#32
0!
#33
b1000000 =
b1000000 Z"
b1000000 &#
b111100 <
b111100 ["
b10010 s
b1001000 >
b1000100 {
b1000100 E"
b1000100 %#
1!
#34
0!
#35
b1001100 >
b1001000 {
b1001000 E"
b1001000 %#
b10011 s
b1000000 <
b1000000 ["
b1000100 =
b1000100 Z"
b1000100 &#
1!
#36
0!
#37
b1001000 =
b1001000 Z"
b1001000 &#
b1000100 <
b1000100 ["
b10100 s
b1010000 >
b1001100 {
b1001100 E"
b1001100 %#
1!
#38
0!
#39
b1010100 >
b1010000 {
b1010000 E"
b1010000 %#
b10101 s
b1001000 <
b1001000 ["
b1001100 =
b1001100 Z"
b1001100 &#
1!
#40
0!
#41
b1010000 =
b1010000 Z"
b1010000 &#
b1001100 <
b1001100 ["
b10110 s
b1011000 >
b1010100 {
b1010100 E"
b1010100 %#
1!
#42
0!
#43
b1011100 >
b1011000 {
b1011000 E"
b1011000 %#
b10111 s
b1010000 <
b1010000 ["
b1010100 =
b1010100 Z"
b1010100 &#
1!
#44
0!
#45
b1011000 =
b1011000 Z"
b1011000 &#
b1010100 <
b1010100 ["
b11000 s
b1100000 >
b1011100 {
b1011100 E"
b1011100 %#
1!
#46
0!
#47
b1100100 >
b1100000 {
b1100000 E"
b1100000 %#
b11001 s
b1011000 <
b1011000 ["
b1011100 =
b1011100 Z"
b1011100 &#
1!
#48
0!
#49
b1100000 =
b1100000 Z"
b1100000 &#
b1011100 <
b1011100 ["
b11010 s
b1101000 >
b1100100 {
b1100100 E"
b1100100 %#
1!
#50
0!
#51
b1101100 >
b1101000 {
b1101000 E"
b1101000 %#
b11011 s
b1100000 <
b1100000 ["
b1100100 =
b1100100 Z"
b1100100 &#
1!
#52
0!
#53
b1101000 =
b1101000 Z"
b1101000 &#
b1100100 <
b1100100 ["
b11100 s
b1110000 >
b1101100 {
b1101100 E"
b1101100 %#
1!
#54
0!
#55
b1110100 >
b1110000 {
b1110000 E"
b1110000 %#
b11101 s
b1101000 <
b1101000 ["
b1101100 =
b1101100 Z"
b1101100 &#
1!
#56
0!
#57
b1110000 =
b1110000 Z"
b1110000 &#
b1101100 <
b1101100 ["
b11110 s
b1111000 >
b1110100 {
b1110100 E"
b1110100 %#
1!
#58
0!
#59
b1111100 >
b1111000 {
b1111000 E"
b1111000 %#
b11111 s
b1110000 <
b1110000 ["
b1110100 =
b1110100 Z"
b1110100 &#
1!
#60
0!
#61
b1111000 =
b1111000 Z"
b1111000 &#
b1110100 <
b1110100 ["
b100000 s
b10000000 >
b1111100 {
b1111100 E"
b1111100 %#
1!
#62
0!
#63
b10000100 >
b10000000 {
b10000000 E"
b10000000 %#
b100001 s
b1111000 <
b1111000 ["
b1111100 =
b1111100 Z"
b1111100 &#
1!
#64
0!
#65
b10000000 =
b10000000 Z"
b10000000 &#
b1111100 <
b1111100 ["
b100010 s
b10001000 >
b10000100 {
b10000100 E"
b10000100 %#
1!
#66
0!
#67
b10001100 >
b10001000 {
b10001000 E"
b10001000 %#
b100011 s
b10000000 <
b10000000 ["
b10000100 =
b10000100 Z"
b10000100 &#
1!
#68
0!
#69
b10001000 =
b10001000 Z"
b10001000 &#
b10000100 <
b10000100 ["
b100100 s
b10010000 >
b10001100 {
b10001100 E"
b10001100 %#
1!
#70
0!
#71
b10010100 >
b10010000 {
b10010000 E"
b10010000 %#
b100101 s
b10001000 <
b10001000 ["
b10001100 =
b10001100 Z"
b10001100 &#
1!
#72
0!
#73
b10010000 =
b10010000 Z"
b10010000 &#
b10001100 <
b10001100 ["
b100110 s
b10011000 >
b10010100 {
b10010100 E"
b10010100 %#
1!
#74
0!
#75
b10011100 >
b10011000 {
b10011000 E"
b10011000 %#
b100111 s
b10010000 <
b10010000 ["
b10010100 =
b10010100 Z"
b10010100 &#
1!
#76
0!
#77
b10011000 =
b10011000 Z"
b10011000 &#
b10010100 <
b10010100 ["
b101000 s
b10100000 >
b10011100 {
b10011100 E"
b10011100 %#
1!
#78
0!
#79
b10100100 >
b10100000 {
b10100000 E"
b10100000 %#
b101001 s
b10011000 <
b10011000 ["
b10011100 =
b10011100 Z"
b10011100 &#
1!
#80
0!
#81
b10100000 =
b10100000 Z"
b10100000 &#
b10011100 <
b10011100 ["
b101010 s
b10101000 >
b10100100 {
b10100100 E"
b10100100 %#
1!
#82
0!
#83
b10101100 >
b10101000 {
b10101000 E"
b10101000 %#
b101011 s
b10100000 <
b10100000 ["
b10100100 =
b10100100 Z"
b10100100 &#
1!
#84
0!
#85
b10101000 =
b10101000 Z"
b10101000 &#
b10100100 <
b10100100 ["
b101100 s
b10110000 >
b10101100 {
b10101100 E"
b10101100 %#
1!
#86
0!
#87
b10110100 >
b10110000 {
b10110000 E"
b10110000 %#
b101101 s
b10101000 <
b10101000 ["
b10101100 =
b10101100 Z"
b10101100 &#
1!
#88
0!
#89
b10110000 =
b10110000 Z"
b10110000 &#
b10101100 <
b10101100 ["
b101110 s
b10111000 >
b10110100 {
b10110100 E"
b10110100 %#
1!
#90
0!
#91
b10111100 >
b10111000 {
b10111000 E"
b10111000 %#
b101111 s
b10110000 <
b10110000 ["
b10110100 =
b10110100 Z"
b10110100 &#
1!
#92
0!
#93
b10111000 =
b10111000 Z"
b10111000 &#
b10110100 <
b10110100 ["
b110000 s
b11000000 >
b10111100 {
b10111100 E"
b10111100 %#
1!
#94
0!
#95
b11000100 >
b11000000 {
b11000000 E"
b11000000 %#
b110001 s
b10111000 <
b10111000 ["
b10111100 =
b10111100 Z"
b10111100 &#
1!
#96
0!
#97
b11000000 =
b11000000 Z"
b11000000 &#
b10111100 <
b10111100 ["
b110010 s
b11001000 >
b11000100 {
b11000100 E"
b11000100 %#
1!
#98
0!
#99
b11001100 >
b11001000 {
b11001000 E"
b11001000 %#
b110011 s
b11000000 <
b11000000 ["
b11000100 =
b11000100 Z"
b11000100 &#
1!
#100
0!
#101
b11001000 =
b11001000 Z"
b11001000 &#
b11000100 <
b11000100 ["
b110100 s
b11010000 >
b11001100 {
b11001100 E"
b11001100 %#
1!
#102
0!
#103
b11010100 >
b11010000 {
b11010000 E"
b11010000 %#
b110101 s
b11001000 <
b11001000 ["
b11001100 =
b11001100 Z"
b11001100 &#
1!
#104
0!
#105
b11010000 =
b11010000 Z"
b11010000 &#
b11001100 <
b11001100 ["
b110110 s
b11011000 >
b11010100 {
b11010100 E"
b11010100 %#
1!
#106
0!
#107
b11011100 >
b11011000 {
b11011000 E"
b11011000 %#
b110111 s
b11010000 <
b11010000 ["
b11010100 =
b11010100 Z"
b11010100 &#
1!
#108
0!
#109
b11011000 =
b11011000 Z"
b11011000 &#
b11010100 <
b11010100 ["
b111000 s
b11100000 >
b11011100 {
b11011100 E"
b11011100 %#
1!
#110
0!
#111
b11100100 >
b11100000 {
b11100000 E"
b11100000 %#
b111001 s
b11011000 <
b11011000 ["
b11011100 =
b11011100 Z"
b11011100 &#
1!
#112
0!
#113
b11100000 =
b11100000 Z"
b11100000 &#
b11011100 <
b11011100 ["
b111010 s
b11101000 >
b11100100 {
b11100100 E"
b11100100 %#
1!
#114
0!
#115
b11101100 >
b11101000 {
b11101000 E"
b11101000 %#
b111011 s
b11100000 <
b11100000 ["
b11100100 =
b11100100 Z"
b11100100 &#
1!
#116
0!
#117
b11101000 =
b11101000 Z"
b11101000 &#
b11100100 <
b11100100 ["
b111100 s
b11110000 >
b11101100 {
b11101100 E"
b11101100 %#
1!
#118
0!
#119
b11110100 >
b11110000 {
b11110000 E"
b11110000 %#
b111101 s
b11101000 <
b11101000 ["
b11101100 =
b11101100 Z"
b11101100 &#
1!
#120
0!
#121
b11110000 =
b11110000 Z"
b11110000 &#
b11101100 <
b11101100 ["
b111110 s
b11111000 >
b11110100 {
b11110100 E"
b11110100 %#
1!
#122
0!
#123
b11111100 >
b11111000 {
b11111000 E"
b11111000 %#
b111111 s
b11110000 <
b11110000 ["
b11110100 =
b11110100 Z"
b11110100 &#
1!
#124
0!
#125
b11111000 =
b11111000 Z"
b11111000 &#
b11110100 <
b11110100 ["
b0 s
b100000000 >
b11111100 {
b11111100 E"
b11111100 %#
1!
#126
0!
#127
b100000100 >
b100000000 {
b100000000 E"
b100000000 %#
b1 s
b11111000 <
b11111000 ["
b11111100 =
b11111100 Z"
b11111100 &#
1!
#128
0!
#129
b100000000 =
b100000000 Z"
b100000000 &#
b11111100 <
b11111100 ["
b10 s
b100001000 >
b100000100 {
b100000100 E"
b100000100 %#
1!
#130
0!
#131
b100001100 >
b100001000 {
b100001000 E"
b100001000 %#
b11 s
b100000000 <
b100000000 ["
b100000100 =
b100000100 Z"
b100000100 &#
1!
#132
0!
#133
b100001000 =
b100001000 Z"
b100001000 &#
b100000100 <
b100000100 ["
b100 s
b100010000 >
b100001100 {
b100001100 E"
b100001100 %#
1!
#134
0!
#135
b100010100 >
b100010000 {
b100010000 E"
b100010000 %#
b101 s
b100001000 <
b100001000 ["
b100001100 =
b100001100 Z"
b100001100 &#
1!
#136
0!
#137
b100010000 =
b100010000 Z"
b100010000 &#
b100001100 <
b100001100 ["
b110 s
b100011000 >
b100010100 {
b100010100 E"
b100010100 %#
1!
#138
0!
#139
b100011100 >
b100011000 {
b100011000 E"
b100011000 %#
b111 s
b100010000 <
b100010000 ["
b100010100 =
b100010100 Z"
b100010100 &#
1!
#140
0!
#141
b100011000 =
b100011000 Z"
b100011000 &#
b100010100 <
b100010100 ["
b1000 s
b100100000 >
b100011100 {
b100011100 E"
b100011100 %#
1!
#142
0!
#143
b100100100 >
b100100000 {
b100100000 E"
b100100000 %#
b1001 s
b100011000 <
b100011000 ["
b100011100 =
b100011100 Z"
b100011100 &#
1!
#144
0!
#145
b100100000 =
b100100000 Z"
b100100000 &#
b100011100 <
b100011100 ["
b1010 s
b100101000 >
b100100100 {
b100100100 E"
b100100100 %#
1!
#146
0!
#147
b100101100 >
b100101000 {
b100101000 E"
b100101000 %#
b1011 s
b100100000 <
b100100000 ["
b100100100 =
b100100100 Z"
b100100100 &#
1!
#148
0!
#149
b100101000 =
b100101000 Z"
b100101000 &#
b100100100 <
b100100100 ["
b1100 s
b100110000 >
b100101100 {
b100101100 E"
b100101100 %#
1!
#150
0!
#151
b100110100 >
b100110000 {
b100110000 E"
b100110000 %#
b1101 s
b100101000 <
b100101000 ["
b100101100 =
b100101100 Z"
b100101100 &#
1!
#152
0!
#153
b100110000 =
b100110000 Z"
b100110000 &#
b100101100 <
b100101100 ["
b1110 s
b100111000 >
b100110100 {
b100110100 E"
b100110100 %#
1!
#154
0!
#155
b100111100 >
b100111000 {
b100111000 E"
b100111000 %#
b1111 s
b100110000 <
b100110000 ["
b100110100 =
b100110100 Z"
b100110100 &#
1!
#156
0!
#157
b100111000 =
b100111000 Z"
b100111000 &#
b100110100 <
b100110100 ["
b10000 s
b101000000 >
b100111100 {
b100111100 E"
b100111100 %#
1!
#158
0!
#159
b101000100 >
b101000000 {
b101000000 E"
b101000000 %#
b10001 s
b100111000 <
b100111000 ["
b100111100 =
b100111100 Z"
b100111100 &#
1!
#160
0!
